…
```r
Cnt_By_CntryResdnc <- Merged_ProctransHumDev %>%
  group_by(CntryResdnc) %>% 
  do(data.frame(nrow=nrow(.))) %>%
  arrange(desc(nrow))

Cnt_By_CntryResdnc
```

```
## # A tibble: 81 x 2
## # Groups:   CntryResdnc [81]
##       CntryResdnc  nrow
##             <chr> <int>
##  1  United States  2785
##  2         Canada   243
##  3 United Kingdom   177
##  4      Australia    99
##  5          India    78
##  6          Italy    62
##  7        Germany    36
##  8         Brazil    20
##  9        Ireland    19
## 10    Netherlands    18
## # ... with 71 more rows
```
…
